EESchema Schematic File Version 4
EELAYER 30 0
EELAYER END
$Descr User 4000 4000
encoding utf-8
Sheet 1 1
Title ""
Date "2021-10-21"
Rev ""
Comp ""
Comment1 ""
Comment2 ""
Comment3 ""
Comment4 ""
$EndDescr
$Comp
L power:VCC #PWR?
U 1 1 6171E008
P 1550 1150
F 0 "#PWR?" H 1550 1000 50  0001 C CNN
F 1 "VCC" H 1565 1323 50  0000 C CNN
F 2 "" H 1550 1150 50  0001 C CNN
F 3 "" H 1550 1150 50  0001 C CNN
	1    1550 1150
	1    0    0    -1  
$EndComp
$Comp
L Device:R 1kΩ
U 1 1 6172296B
P 1550 1400
F 0 "1kΩ" H 1620 1400 50  0000 L CNN
F 1 "R" H 1620 1355 50  0001 L CNN
F 2 "" V 1480 1400 50  0001 C CNN
F 3 "~" H 1550 1400 50  0001 C CNN
	1    1550 1400
	1    0    0    -1  
$EndComp
$Comp
L Switch:SW_Push BTN
U 1 1 61724A05
P 1550 1850
F 0 "BTN" H 1550 2135 50  0001 C CNN
F 1 "BTN" V 1550 1998 50  0000 L CNN
F 2 "" H 1550 2050 50  0001 C CNN
F 3 "~" H 1550 2050 50  0001 C CNN
	1    1550 1850
	0    1    1    0   
$EndComp
$Comp
L Device:CP C
U 1 1 61726FA3
P 2250 1850
F 0 "C" H 2368 1850 50  0000 L CNN
F 1 "CP" H 2368 1805 50  0001 L CNN
F 2 "" H 2288 1700 50  0001 C CNN
F 3 "~" H 2250 1850 50  0001 C CNN
	1    2250 1850
	1    0    0    -1  
$EndComp
$Comp
L power:GND #PWR?
U 1 1 6173DA02
P 1550 2150
F 0 "#PWR?" H 1550 1900 50  0001 C CNN
F 1 "GND" H 1555 1977 50  0000 C CNN
F 2 "" H 1550 2150 50  0001 C CNN
F 3 "" H 1550 2150 50  0001 C CNN
	1    1550 2150
	1    0    0    -1  
$EndComp
$Comp
L power:GND #PWR?
U 1 1 61747CE4
P 2250 2150
F 0 "#PWR?" H 2250 1900 50  0001 C CNN
F 1 "GND" H 2255 1977 50  0000 C CNN
F 2 "" H 2250 2150 50  0001 C CNN
F 3 "" H 2250 2150 50  0001 C CNN
	1    2250 2150
	1    0    0    -1  
$EndComp
$Comp
L Device:R 1kΩ
U 1 1 6174A6CB
P 1900 1600
F 0 "1kΩ" V 2015 1600 50  0000 C CNN
F 1 "R" H 1970 1555 50  0001 L CNN
F 2 "" V 1830 1600 50  0001 C CNN
F 3 "~" H 1900 1600 50  0001 C CNN
	1    1900 1600
	0    -1   -1   0   
$EndComp
Wire Wire Line
	2250 2000 2250 2150
Wire Wire Line
	1550 1650 1550 1600
Wire Wire Line
	1550 1600 1750 1600
Connection ~ 1550 1600
Wire Wire Line
	1550 1600 1550 1550
Wire Wire Line
	1550 1150 1550 1250
Wire Wire Line
	2050 1600 2250 1600
Wire Wire Line
	1550 2050 1550 2150
Wire Wire Line
	2250 1700 2250 1600
$Comp
L power:VCC OUT
U 1 1 61720158
P 2400 1600
F 0 "OUT" V 2415 1728 50  0000 L CNN
F 1 "VCC" V 2415 1728 50  0001 L CNN
F 2 "" H 2400 1600 50  0001 C CNN
F 3 "" H 2400 1600 50  0001 C CNN
	1    2400 1600
	0    1    1    0   
$EndComp
Wire Wire Line
	2400 1600 2250 1600
Connection ~ 2250 1600
$EndSCHEMATC
