EESchema Schematic File Version 4
EELAYER 30 0
EELAYER END
$Descr User 4000 4000
encoding utf-8
Sheet 1 1
Title ""
Date ""
Rev ""
Comp ""
Comment1 ""
Comment2 ""
Comment3 ""
Comment4 ""
$EndDescr
$Comp
L power:VCC #PWR?
U 1 1 61720726
P 1400 1000
F 0 "#PWR?" H 1400 850 50  0001 C CNN
F 1 "VCC" H 1415 1173 50  0000 C CNN
F 2 "" H 1400 1000 50  0001 C CNN
F 3 "" H 1400 1000 50  0001 C CNN
	1    1400 1000
	1    0    0    -1  
$EndComp
$Comp
L power:GND #PWR?
U 1 1 61720FEA
P 1400 2000
F 0 "#PWR?" H 1400 1750 50  0001 C CNN
F 1 "GND" H 1405 1827 50  0000 C CNN
F 2 "" H 1400 2000 50  0001 C CNN
F 3 "" H 1400 2000 50  0001 C CNN
	1    1400 2000
	1    0    0    -1  
$EndComp
$Comp
L power:GND #PWR?
U 1 1 61721A47
P 1700 2000
F 0 "#PWR?" H 1700 1750 50  0001 C CNN
F 1 "GND" H 1705 1827 50  0000 C CNN
F 2 "" H 1700 2000 50  0001 C CNN
F 3 "" H 1700 2000 50  0001 C CNN
	1    1700 2000
	1    0    0    -1  
$EndComp
$Comp
L power:VCC #PWR?
U 1 1 61723082
P 1700 1000
F 0 "#PWR?" H 1700 850 50  0001 C CNN
F 1 "VCC" H 1715 1173 50  0000 C CNN
F 2 "" H 1700 1000 50  0001 C CNN
F 3 "" H 1700 1000 50  0001 C CNN
	1    1700 1000
	1    0    0    -1  
$EndComp
$Comp
L power:VCC OUT
U 1 1 61735695
P 2800 1500
F 0 "OUT" V 2815 1628 50  0000 L CNN
F 1 "VCC" V 2815 1628 50  0001 L CNN
F 2 "" H 2800 1500 50  0001 C CNN
F 3 "" H 2800 1500 50  0001 C CNN
	1    2800 1500
	0    1    1    0   
$EndComp
$Comp
L Device:R 1kΩ
U 1 1 61741E81
P 1700 1200
F 0 "1kΩ" H 1770 1200 50  0000 L CNN
F 1 "R" H 1770 1155 50  0001 L CNN
F 2 "" V 1630 1200 50  0001 C CNN
F 3 "~" H 1700 1200 50  0001 C CNN
	1    1700 1200
	1    0    0    -1  
$EndComp
$Comp
L Device:R 1kΩ
U 1 1 617428FE
P 1700 1800
F 0 "1kΩ" H 1770 1800 50  0000 L CNN
F 1 "R" H 1770 1755 50  0001 L CNN
F 2 "" V 1630 1800 50  0001 C CNN
F 3 "~" H 1700 1800 50  0001 C CNN
	1    1700 1800
	1    0    0    -1  
$EndComp
Wire Wire Line
	1700 1000 1700 1050
Wire Wire Line
	1700 1350 1700 1600
Wire Wire Line
	1700 1950 1700 2000
Wire Wire Line
	2800 1500 2650 1500
$Comp
L Device:R 1kΩ
U 1 1 617504CF
P 2300 1850
F 0 "1kΩ" V 2415 1850 50  0000 C CNN
F 1 "R" H 2370 1805 50  0001 L CNN
F 2 "" V 2230 1850 50  0001 C CNN
F 3 "~" H 2300 1850 50  0001 C CNN
	1    2300 1850
	0    -1   -1   0   
$EndComp
Wire Wire Line
	2000 1600 1950 1600
Connection ~ 1700 1600
Wire Wire Line
	1700 1600 1700 1650
Wire Wire Line
	1950 1600 1950 1850
Wire Wire Line
	1950 1850 2150 1850
Connection ~ 1950 1600
Wire Wire Line
	1950 1600 1700 1600
Wire Wire Line
	2450 1850 2650 1850
Wire Wire Line
	2650 1850 2650 1500
Connection ~ 2650 1500
Wire Wire Line
	2650 1500 2600 1500
Wire Wire Line
	1400 1000 1400 1250
Wire Wire Line
	2000 1400 1550 1400
$Comp
L r_pot_2:R_POT_2 10kΩ
U 1 1 61728062
P 1400 1400
F 0 "10kΩ" H 1331 1400 50  0000 R CNN
F 1 "R_POT_2" H 1330 1355 50  0001 R CNN
F 2 "" H 1400 1400 50  0001 C CNN
F 3 "~" H 1400 1400 50  0001 C CNN
	1    1400 1400
	1    0    0    -1  
$EndComp
Wire Wire Line
	1400 1550 1400 2000
$Comp
L lm2904_2:LM2904_2 U?
U 1 1 6172E573
P 2300 1500
F 0 "U?" H 2300 1867 50  0001 C CNN
F 1 "LM358" H 2300 1775 50  0000 C CNN
F 2 "" H 2300 1500 50  0001 C CNN
F 3 "http://www.ti.com/lit/ds/symlink/lm358.pdf" H 2300 1500 50  0001 C CNN
	1    2300 1500
	1    0    0    -1  
$EndComp
$EndSCHEMATC
